%
M48
M72
T01C0.0200
T02C0.0236
T03C0.0315
T04C0.0394
T05C0.0400
T06C0.1181
%
T01
X3591Y35344
X2591Y36144
X12434Y36144
X13434Y35344
X22276Y36144
X23276Y35344
X32119Y36144
X33119Y35344
T02
X35409Y38509
X32109Y31109
X35409Y28409
X33119Y25502
X32119Y26302
X32109Y21309
X35309Y18709
X33119Y15659
X32119Y16459
X32109Y11509
X32109Y9209
X32119Y6616
X33119Y5816
X35409Y8809
X25609Y8809
X23709Y12009
X22209Y11509
X22309Y9209
X22276Y6616
X23276Y5816
X23709Y2009
X15709Y8809
X13909Y12109
X12409Y11509
X12309Y9209
X12434Y6616
X13434Y5816
X13809Y2009
X5809Y8809
X2609Y9209
X2609Y11509
X4009Y12109
X3591Y15659
X2591Y16459
X5809Y18709
X3609Y21309
X4309Y21809
X3591Y25502
X2591Y26302
X5909Y28409
X4409Y31609
X2609Y31109
X5809Y38509
X12409Y31109
X14309Y31509
X15709Y28409
X13434Y25502
X12434Y26302
X14209Y21709
X12409Y21309
X15609Y18709
X13434Y15659
X12434Y16459
X22276Y16459
X23276Y15659
X25509Y18709
X23209Y21309
X24009Y21709
X23276Y25502
X22276Y26302
X25509Y28409
X23809Y31509
X22309Y31109
X15609Y38409
X25509Y38509
X2591Y6616
X3591Y5816
X3909Y1909
T03
X9041Y3559
X11403Y3559
X18883Y3559
X21245Y3559
X28726Y3559
X31088Y3559
X33647Y1984
X36009Y1984
X36009Y12023
X33647Y12023
X31088Y12811
X28726Y12811
X21245Y12811
X18883Y12811
X11403Y12811
X9041Y12811
X9041Y23047
X11403Y23047
X18883Y23047
X21245Y23047
X28726Y23047
X31088Y23047
X33647Y20291
X36009Y20291
X36009Y31541
X33647Y31541
X31088Y32299
X28726Y32299
X21245Y32299
X18883Y32299
X11403Y32299
X9041Y32299
T04
X5824Y34958
X5037Y34958
X14879Y34958
X15667Y34958
X24722Y34958
X25509Y34958
X34564Y34958
X35352Y34958
X35352Y25115
X34564Y25115
X25509Y25115
X24722Y25115
X15667Y25115
X14879Y25115
X5824Y25115
X5037Y25115
X5037Y15273
X5824Y15273
X14879Y15273
X15667Y15273
X24722Y15273
X25509Y15273
X34564Y15273
X35352Y15273
X35352Y5430
X34564Y5430
X25509Y5430
X24722Y5430
X15667Y5430
X14879Y5430
X5824Y5430
X5037Y5430
T05
X1624Y4314
X1624Y3314
X8828Y1590
X9828Y1590
X10796Y1590
X11796Y1590
X1624Y13164
X1624Y14164
X1624Y23014
X1624Y24014
X1624Y32864
X1624Y33864
X8844Y38795
X9844Y38795
X10812Y38795
X11812Y38795
X28332Y38795
X29332Y38795
X30300Y38795
X31300Y38795
X38774Y33864
X38774Y32864
X38774Y24014
X38774Y23014
X38774Y14164
X38774Y13164
X38774Y4314
X38774Y3314
X31285Y1590
X30285Y1590
X29316Y1590
X28316Y1590
T06
X1487Y1487
X5430Y10352
X10352Y5430
X15273Y10352
X10352Y15273
X1499Y19209
X1499Y21179
X10352Y25115
X15273Y30037
X10352Y34958
X5430Y30037
X1487Y38901
X19209Y38899
X21179Y38899
X25115Y30037
X30037Y34958
X34958Y30037
X30037Y25115
X38899Y21179
X38899Y19209
X34958Y10352
X30037Y5430
X25115Y10352
X30037Y15273
X21179Y19209
X19209Y19209
X19209Y21179
X21179Y21179
X38901Y38901
X38901Y1487
X21179Y1489
X19209Y1489
M30
